{
    "rules": [
        {
            "id": 2630341,
            "clientKey": "79b276f6-ff31-3ce2-b9ca-8b8e03c2917a",
            "name": "Crear subtareas al crear tarea.",
            "state": "ENABLED",
            "description": null,
            "authorAccountId": "5fb3ac039592df00768bf1d8",
            "actor": {
                "type": "ACCOUNT_ID",
                "value": "557058:f58131cb-b67d-43c7-b30d-6b58d40bd077"
            },
            "created": 1635944462410,
            "updated": 1635944478620,
            "trigger": {
                "id": "69572690",
                "component": "TRIGGER",
                "parentId": null,
                "conditionParentId": null,
                "schemaVersion": 1,
                "type": "jira.issue.event.trigger:created",
                "value": {
                    "eventKey": "jira:issue_created",
                    "issueEvent": "issue_created"
                },
                "children": [],
                "conditions": []
            },
            "components": [
                {
                    "id": "69572691",
                    "component": "CONDITION",
                    "parentId": null,
                    "conditionParentId": null,
                    "schemaVersion": 3,
                    "type": "jira.issue.condition",
                    "value": {
                        "selectedField": {
                            "type": "ID",
                            "value": "issuetype"
                        },
                        "selectedFieldType": "issuetype",
                        "comparison": "ONE_OF",
                        "compareValue": {
                            "type": "ID",
                            "modifier": null,
                            "value": "[\"10002\",\"10213\"]",
                            "multiValue": true,
                            "source": null
                        }
                    },
                    "children": [],
                    "conditions": []
                },
                {
                    "id": "69572692",
                    "component": "CONDITION",
                    "parentId": null,
                    "conditionParentId": null,
                    "schemaVersion": 1,
                    "type": "jira.condition.container.block",
                    "value": null,
                    "children": [
                        {
                            "id": "69572693",
                            "component": "CONDITION_BLOCK",
                            "parentId": null,
                            "conditionParentId": null,
                            "schemaVersion": 1,
                            "type": "jira.condition.if.block",
                            "value": {
                                "conditionMatchType": "ALL"
                            },
                            "children": [
                                {
                                    "id": "69572695",
                                    "component": "ACTION",
                                    "parentId": null,
                                    "conditionParentId": null,
                                    "schemaVersion": 1,
                                    "type": "jira.issue.create.subtasks",
                                    "value": {
                                        "subtasks": [
                                            {
                                                "id": "_subid_1635926721811",
                                                "type": "10003",
                                                "summary": "BA"
                                            }
                                        ]
                                    },
                                    "children": [],
                                    "conditions": []
                                }
                            ],
                            "conditions": [
                                {
                                    "id": "69572694",
                                    "component": "CONDITION",
                                    "parentId": null,
                                    "conditionParentId": null,
                                    "schemaVersion": 1,
                                    "type": "jira.jql.condition",
                                    "value": "summary~'ACC Sign Off' OR summary~'ACC Validaciones' OR summary~'Comité valoraciones' OR summary~'Dependencias DAC' OR summary~'Inicio Dev' OR summary~'IOP 1L' OR summary~'IOP General' OR summary~'Kongo Kick-Off' OR summary~'R4B' OR summary~'UAT Validaciones' OR summary~'User stories'",
                                    "children": [],
                                    "conditions": []
                                }
                            ]
                        }
                    ],
                    "conditions": []
                },
                {
                    "id": "69572696",
                    "component": "CONDITION",
                    "parentId": null,
                    "conditionParentId": null,
                    "schemaVersion": 1,
                    "type": "jira.condition.container.block",
                    "value": null,
                    "children": [
                        {
                            "id": "69572697",
                            "component": "CONDITION_BLOCK",
                            "parentId": null,
                            "conditionParentId": null,
                            "schemaVersion": 1,
                            "type": "jira.condition.if.block",
                            "value": {
                                "conditionMatchType": "ALL"
                            },
                            "children": [
                                {
                                    "id": "69572699",
                                    "component": "ACTION",
                                    "parentId": null,
                                    "conditionParentId": null,
                                    "schemaVersion": 1,
                                    "type": "jira.issue.create.subtasks",
                                    "value": {
                                        "subtasks": [
                                            {
                                                "id": "_subid_1635926382081",
                                                "type": "10003",
                                                "summary": "EM"
                                            }
                                        ]
                                    },
                                    "children": [],
                                    "conditions": []
                                }
                            ],
                            "conditions": [
                                {
                                    "id": "69572698",
                                    "component": "CONDITION",
                                    "parentId": null,
                                    "conditionParentId": null,
                                    "schemaVersion": 1,
                                    "type": "jira.jql.condition",
                                    "value": "summary~'ACC Despliegue' OR summary~'ACC Sign Off' OR summary~'ACC Validaciones' OR summary~'Comité valoraciones' OR summary~'Dependencias IT' OR summary~'Inicio Dev' OR summary~'IOP 1L' OR summary~'IOP General' OR summary~'PILOTAJE' OR summary~'R4B' OR summary~'Scoring' OR summary~'Technical Kongo' OR summary~'UAT Sign Off' OR summary~'UAT Validaciones'",
                                    "children": [],
                                    "conditions": []
                                }
                            ]
                        }
                    ],
                    "conditions": []
                },
                {
                    "id": "69572700",
                    "component": "CONDITION",
                    "parentId": null,
                    "conditionParentId": null,
                    "schemaVersion": 1,
                    "type": "jira.condition.container.block",
                    "value": null,
                    "children": [
                        {
                            "id": "69572701",
                            "component": "CONDITION_BLOCK",
                            "parentId": null,
                            "conditionParentId": null,
                            "schemaVersion": 1,
                            "type": "jira.condition.if.block",
                            "value": {
                                "conditionMatchType": "ALL"
                            },
                            "children": [
                                {
                                    "id": "69572703",
                                    "component": "ACTION",
                                    "parentId": null,
                                    "conditionParentId": null,
                                    "schemaVersion": 1,
                                    "type": "jira.issue.create.subtasks",
                                    "value": {
                                        "subtasks": [
                                            {
                                                "id": "_subid_1635926284113",
                                                "type": "10003",
                                                "summary": "PM"
                                            }
                                        ]
                                    },
                                    "children": [],
                                    "conditions": []
                                }
                            ],
                            "conditions": [
                                {
                                    "id": "69572702",
                                    "component": "CONDITION",
                                    "parentId": null,
                                    "conditionParentId": null,
                                    "schemaVersion": 1,
                                    "type": "jira.jql.condition",
                                    "value": "summary~'ACC Despliegue' OR summary~'ACC Sign Off' OR summary~'ACC Validaciones' OR summary~'Comité valoraciones' OR summary~'Dependencias PaP' OR summary~'Dependencias DEV' OR summary~'Dependencias DEV' OR summary~'Dependencias IT' OR summary~'Inicio Dev' OR summary~'IOP 1L' OR summary~'IOP General' OR summary~'PILOTAJE' OR summary~'R4B' OR summary~'Scoring' OR summary~'Sign Off' OR summary~'UAT Sign Off' OR summary~'UAT Validaciones' OR summary~'Entregables'",
                                    "children": [],
                                    "conditions": []
                                }
                            ]
                        }
                    ],
                    "conditions": []
                },
                {
                    "id": "69572704",
                    "component": "CONDITION",
                    "parentId": null,
                    "conditionParentId": null,
                    "schemaVersion": 1,
                    "type": "jira.condition.container.block",
                    "value": null,
                    "children": [
                        {
                            "id": "69572705",
                            "component": "CONDITION_BLOCK",
                            "parentId": null,
                            "conditionParentId": null,
                            "schemaVersion": 1,
                            "type": "jira.condition.if.block",
                            "value": {
                                "conditionMatchType": "ALL"
                            },
                            "children": [
                                {
                                    "id": "69572707",
                                    "component": "ACTION",
                                    "parentId": null,
                                    "conditionParentId": null,
                                    "schemaVersion": 1,
                                    "type": "jira.issue.create.subtasks",
                                    "value": {
                                        "subtasks": [
                                            {
                                                "id": "_subid_1635926187290",
                                                "type": "10003",
                                                "summary": "Copies"
                                            },
                                            {
                                                "id": "_subid_1635926196643",
                                                "type": "10003",
                                                "summary": "UI"
                                            }
                                        ]
                                    },
                                    "children": [],
                                    "conditions": []
                                }
                            ],
                            "conditions": [
                                {
                                    "id": "69572706",
                                    "component": "CONDITION",
                                    "parentId": null,
                                    "conditionParentId": null,
                                    "schemaVersion": 1,
                                    "type": "jira.jql.condition",
                                    "value": "summary ~ 'UX/UI/Copies'",
                                    "children": [],
                                    "conditions": []
                                }
                            ]
                        }
                    ],
                    "conditions": []
                },
                {
                    "id": "69572708",
                    "component": "CONDITION",
                    "parentId": null,
                    "conditionParentId": null,
                    "schemaVersion": 1,
                    "type": "jira.condition.container.block",
                    "value": null,
                    "children": [
                        {
                            "id": "69572709",
                            "component": "CONDITION_BLOCK",
                            "parentId": null,
                            "conditionParentId": null,
                            "schemaVersion": 1,
                            "type": "jira.condition.if.block",
                            "value": {
                                "conditionMatchType": "ALL"
                            },
                            "children": [
                                {
                                    "id": "69572711",
                                    "component": "ACTION",
                                    "parentId": null,
                                    "conditionParentId": null,
                                    "schemaVersion": 1,
                                    "type": "jira.issue.create.subtasks",
                                    "value": {
                                        "subtasks": [
                                            {
                                                "id": "_subid_1635927180755",
                                                "type": "10003",
                                                "summary": "UX"
                                            }
                                        ]
                                    },
                                    "children": [],
                                    "conditions": []
                                }
                            ],
                            "conditions": [
                                {
                                    "id": "69572710",
                                    "component": "CONDITION",
                                    "parentId": null,
                                    "conditionParentId": null,
                                    "schemaVersion": 1,
                                    "type": "jira.jql.condition",
                                    "value": "summary~'Test Usuario' OR summary~'UX/UI/Copies'",
                                    "children": [],
                                    "conditions": []
                                }
                            ]
                        }
                    ],
                    "conditions": []
                },
                {
                    "id": "69572712",
                    "component": "CONDITION",
                    "parentId": null,
                    "conditionParentId": null,
                    "schemaVersion": 1,
                    "type": "jira.condition.container.block",
                    "value": null,
                    "children": [
                        {
                            "id": "69572713",
                            "component": "CONDITION_BLOCK",
                            "parentId": null,
                            "conditionParentId": null,
                            "schemaVersion": 1,
                            "type": "jira.condition.if.block",
                            "value": {
                                "conditionMatchType": "ALL"
                            },
                            "children": [
                                {
                                    "id": "69572715",
                                    "component": "ACTION",
                                    "parentId": null,
                                    "conditionParentId": null,
                                    "schemaVersion": 1,
                                    "type": "jira.issue.create.subtasks",
                                    "value": {
                                        "subtasks": [
                                            {
                                                "id": "_subid_1635848377549",
                                                "type": "10003",
                                                "summary": "PO"
                                            }
                                        ]
                                    },
                                    "children": [],
                                    "conditions": []
                                }
                            ],
                            "conditions": [
                                {
                                    "id": "69572714",
                                    "component": "CONDITION",
                                    "parentId": null,
                                    "conditionParentId": null,
                                    "schemaVersion": 1,
                                    "type": "jira.jql.condition",
                                    "value": "summary~'ACC Sign Off' OR summary~'ACC Validaciones' OR summary~'Inicio Dev' OR summary~'IOP 1L' OR summary~'IOP General' OR summary~'Kongo Kick-Off' OR summary~'R4B' OR summary~'Test Usuario' OR summary~'UAT Validaciones' OR summary~'User stories'",
                                    "children": [],
                                    "conditions": []
                                }
                            ]
                        }
                    ],
                    "conditions": []
                },
                {
                    "id": "69572716",
                    "component": "CONDITION",
                    "parentId": null,
                    "conditionParentId": null,
                    "schemaVersion": 1,
                    "type": "jira.condition.container.block",
                    "value": null,
                    "children": [
                        {
                            "id": "69572717",
                            "component": "CONDITION_BLOCK",
                            "parentId": null,
                            "conditionParentId": null,
                            "schemaVersion": 1,
                            "type": "jira.condition.if.block",
                            "value": {
                                "conditionMatchType": "ALL"
                            },
                            "children": [
                                {
                                    "id": "69572719",
                                    "component": "ACTION",
                                    "parentId": null,
                                    "conditionParentId": null,
                                    "schemaVersion": 1,
                                    "type": "jira.issue.create.subtasks",
                                    "value": {
                                        "subtasks": [
                                            {
                                                "id": "_subid_1635864342483",
                                                "type": "10003",
                                                "summary": "QA"
                                            }
                                        ]
                                    },
                                    "children": [],
                                    "conditions": []
                                }
                            ],
                            "conditions": [
                                {
                                    "id": "69572718",
                                    "component": "CONDITION",
                                    "parentId": null,
                                    "conditionParentId": null,
                                    "schemaVersion": 1,
                                    "type": "jira.jql.condition",
                                    "value": "summary~'ACC Sign Off' OR summary~'ACC Validaciones' OR summary~'UAT Sign Off' OR summary~'UAT Validaciones'",
                                    "children": [],
                                    "conditions": []
                                }
                            ]
                        }
                    ],
                    "conditions": []
                }
            ],
            "canOtherRuleTrigger": true,
            "notifyOnError": "FIRSTERROR",
            "projects": [
                {
                    "projectId": "10088",
                    "projectTypeKey": "software"
                }
            ],
            "labels": [],
            "tags": [],
            "ruleScope": {
                "resources": [
                    "ari:cloud:jira:00dbef5d-c33b-4143-a6a0-69cb70150428:project/10088"
                ]
            }
        }
    ],
    "cloud": true
}